(DATA  a)
(FUNCTION  addThem  [(int d) (int e)]
  (BB 2
    (OPER 3 Func_Entry []  [])
  )
  (BB 3
    (OPER 7 Add_I [(r 4)]  [(r 1)(r 2)])
    (OPER 10 Mov [(r 3)]  [(r 4)])
    (OPER 12 Mov [(m RetReg)]  [(r 3)])
    (OPER 13 Jmp []  [(bb 4)])
  )
  (BB 4
    (OPER 4 Func_Exit []  [])
    (OPER 5 Return []  [(m RetReg)])
  )
)
(FUNCTION  putDigit  [(int s)]
  (BB 2
    (OPER 3 Func_Entry []  [])
  )
  (BB 3
    (OPER 8 Mov [(r 3)]  [(i 48)])
    (OPER 7 Add_I [(r 2)]  [(r 3)(r 1)])
    (OPER 6 Pass []  [(r 2)] [(PARAM_NUM 0)])
    (OPER 11 JSR []  [(s putchar)] [(numParams 1)])
  )
  (BB 4
    (OPER 4 Func_Exit []  [])
    (OPER 5 Return []  [(m RetReg)])
  )
)
(FUNCTION  printInt  [(int r)]
  (BB 2
    (OPER 3 Func_Entry []  [])
  )
  (BB 3
    (OPER 7 Mov [(r 4)]  [(i 0)])
    (OPER 9 Mov [(r 3)]  [(r 4)])
    (OPER 12 Mov [(r 6)]  [(i 10000)])
    (OPER 10 GTE [(r 5)]  [(r 1)(r 6)])
    (OPER 14 BEQ []  [(r 5)(i 0)(bb 8)])
  )
  (BB 6
  )
  (BB 9
    (OPER 16 Mov [(r 7)]  [(i 45)])
    (OPER 15 Pass []  [(r 7)] [(PARAM_NUM 0)])
    (OPER 18 JSR []  [(s putchar)] [(numParams 1)])
    (OPER 20 Mov [(r 8)]  [(i 1)])
    (OPER 19 Pass []  [(r 8)] [(PARAM_NUM 0)])
    (OPER 22 JSR []  [(s putDigit)] [(numParams 1)])
    (OPER 23 Jmp []  [(bb 7)])
  )
  (BB 7
  )
  (BB 4
    (OPER 4 Func_Exit []  [])
    (OPER 5 Return []  [(m RetReg)])
  )
  (BB 15
    (OPER 80 Mov [(r 26)]  [(i 1)])
    (OPER 78 EQ [(r 25)]  [(r 3)(r 26)])
    (OPER 82 BEQ []  [(r 25)(i 0)(bb 18)])
  )
  (BB 17
  )
  (BB 19
    (OPER 84 Mov [(r 27)]  [(i 0)])
    (OPER 83 Pass []  [(r 27)] [(PARAM_NUM 0)])
    (OPER 86 JSR []  [(s putDigit)] [(numParams 1)])
    (OPER 87 Jmp []  [(bb 18)])
  )
  (BB 18
    (OPER 88 Jmp []  [(bb 14)])
  )
  (BB 22
    (OPER 114 Mov [(r 36)]  [(i 1)])
    (OPER 112 EQ [(r 35)]  [(r 3)(r 36)])
    (OPER 116 BEQ []  [(r 35)(i 0)(bb 25)])
  )
  (BB 24
  )
  (BB 26
    (OPER 118 Mov [(r 37)]  [(i 0)])
    (OPER 117 Pass []  [(r 37)] [(PARAM_NUM 0)])
    (OPER 120 JSR []  [(s putDigit)] [(numParams 1)])
    (OPER 121 Jmp []  [(bb 25)])
  )
  (BB 25
    (OPER 122 Jmp []  [(bb 21)])
  )
  (BB 8
    (OPER 26 Mov [(r 10)]  [(i 1000)])
    (OPER 24 GTE [(r 9)]  [(r 1)(r 10)])
    (OPER 28 BEQ []  [(r 9)(i 0)(bb 11)])
  )
  (BB 10
  )
  (BB 12
    (OPER 32 Mov [(r 12)]  [(i 1000)])
    (OPER 30 Div_I [(r 11)]  [(r 1)(r 12)])
    (OPER 34 Mov [(r 2)]  [(r 11)])
    (OPER 35 Pass []  [(r 2)] [(PARAM_NUM 0)])
    (OPER 37 JSR []  [(s putDigit)] [(numParams 1)])
    (OPER 43 Mov [(r 15)]  [(i 1000)])
    (OPER 41 Mul_I [(r 14)]  [(r 2)(r 15)])
    (OPER 39 Sub_I [(r 13)]  [(r 1)(r 14)])
    (OPER 45 Mov [(r 1)]  [(r 13)])
    (OPER 47 Mov [(r 16)]  [(i 1)])
    (OPER 49 Mov [(r 3)]  [(r 16)])
    (OPER 50 Jmp []  [(bb 11)])
  )
  (BB 11
    (OPER 53 Mov [(r 18)]  [(i 100)])
    (OPER 51 GTE [(r 17)]  [(r 1)(r 18)])
    (OPER 55 BEQ []  [(r 17)(i 0)(bb 15)])
  )
  (BB 13
  )
  (BB 16
    (OPER 59 Mov [(r 20)]  [(i 100)])
    (OPER 57 Div_I [(r 19)]  [(r 1)(r 20)])
    (OPER 61 Mov [(r 2)]  [(r 19)])
    (OPER 62 Pass []  [(r 2)] [(PARAM_NUM 0)])
    (OPER 64 JSR []  [(s putDigit)] [(numParams 1)])
    (OPER 70 Mov [(r 23)]  [(i 100)])
    (OPER 68 Mul_I [(r 22)]  [(r 2)(r 23)])
    (OPER 66 Sub_I [(r 21)]  [(r 1)(r 22)])
    (OPER 72 Mov [(r 1)]  [(r 21)])
    (OPER 74 Mov [(r 24)]  [(i 1)])
    (OPER 76 Mov [(r 3)]  [(r 24)])
    (OPER 77 Jmp []  [(bb 14)])
  )
  (BB 14
    (OPER 91 Mov [(r 29)]  [(i 10)])
    (OPER 89 GTE [(r 28)]  [(r 1)(r 29)])
    (OPER 93 BEQ []  [(r 28)(i 0)(bb 22)])
  )
  (BB 20
  )
  (BB 23
    (OPER 97 Mov [(r 31)]  [(i 10)])
    (OPER 95 Div_I [(r 30)]  [(r 1)(r 31)])
    (OPER 99 Mov [(r 2)]  [(r 30)])
    (OPER 100 Pass []  [(r 2)] [(PARAM_NUM 0)])
    (OPER 102 JSR []  [(s putDigit)] [(numParams 1)])
    (OPER 108 Mov [(r 34)]  [(i 10)])
    (OPER 106 Mul_I [(r 33)]  [(r 2)(r 34)])
    (OPER 104 Sub_I [(r 32)]  [(r 1)(r 33)])
    (OPER 110 Mov [(r 1)]  [(r 32)])
    (OPER 111 Jmp []  [(bb 21)])
  )
  (BB 21
    (OPER 123 Pass []  [(r 1)] [(PARAM_NUM 0)])
    (OPER 125 JSR []  [(s putDigit)] [(numParams 1)])
    (OPER 126 Jmp []  [(bb 7)])
  )
)
(FUNCTION  main  []
  (BB 2
    (OPER 3 Func_Entry []  [])
  )
  (BB 3
    (OPER 8 Mov [(r 6)]  [(i 5)])
    (OPER 10 Mov [(r 2)]  [(r 6)])
    (OPER 11 Mov [(r 1)]  [(r 2)])
    (OPER 14 Mov [(r 8)]  [(i 5)])
    (OPER 12 EQ [(r 7)]  [(r 1)(r 8)])
    (OPER 16 BEQ []  [(r 7)(i 0)(bb 8)])
  )
  (BB 6
  )
  (BB 9
    (OPER 18 Mov [(r 9)]  [(i 3)])
    (OPER 20 Store []  [(r 9)(s a)(i 0)])
    (OPER 21 Jmp []  [(bb 7)])
  )
  (BB 7
    (OPER 28 Mov [(r 11)]  [(i 0)])
    (OPER 30 Mov [(r 3)]  [(r 11)])
    (OPER 32 Mov [(r 12)]  [(i 1)])
    (OPER 34 Mov [(r 5)]  [(r 12)])
    (OPER 37 Mov [(r 14)]  [(i 8)])
    (OPER 35 LTE [(r 13)]  [(r 5)(r 14)])
    (OPER 39 BEQ []  [(r 13)(i 0)(bb 11)])
  )
  (BB 10
    (OPER 41 Add_I [(r 15)]  [(r 3)(r 5)])
    (OPER 44 Mov [(r 3)]  [(r 15)])
    (OPER 48 Mov [(r 17)]  [(i 1)])
    (OPER 46 Add_I [(r 16)]  [(r 5)(r 17)])
    (OPER 50 Mov [(r 5)]  [(r 16)])
    (OPER 53 Mov [(r 19)]  [(i 8)])
    (OPER 51 LTE [(r 18)]  [(r 5)(r 19)])
    (OPER 55 BNE []  [(r 18)(i 0)(bb 10)])
  )
  (BB 11
    (OPER 59 Mov [(r 21)]  [(i 3)])
    (OPER 57 Div_I [(r 20)]  [(r 3)(r 21)])
    (OPER 61 Mov [(r 4)]  [(r 20)])
    (OPER 65 Mov [(r 23)]  [(i 4)])
    (OPER 63 Mul_I [(r 22)]  [(r 4)(r 23)])
    (OPER 67 Mov [(r 3)]  [(r 22)])
    (OPER 71 Load [(r 24)]  [(s a)(i 0)])
    (OPER 69 Pass []  [(r 24)] [(PARAM_NUM 0)])
    (OPER 72 Pass []  [(r 1)] [(PARAM_NUM 1)])
    (OPER 74 JSR []  [(s addThem)] [(numParams 2)])
    (OPER 75 Mov [(r 2)]  [(m RetReg)])
    (OPER 77 Mov [(r 25)]  [(i 56)])
    (OPER 76 Pass []  [(r 25)] [(PARAM_NUM 0)])
    (OPER 79 JSR []  [(s putchar)] [(numParams 1)])
    (OPER 81 Mov [(r 26)]  [(i 61)])
    (OPER 80 Pass []  [(r 26)] [(PARAM_NUM 0)])
    (OPER 83 JSR []  [(s putchar)] [(numParams 1)])
    (OPER 85 Add_I [(r 27)]  [(r 2)(r 3)])
    (OPER 84 Pass []  [(r 27)] [(PARAM_NUM 0)])
    (OPER 88 JSR []  [(s putchar)] [(numParams 1)])
    (OPER 90 Mov [(r 28)]  [(i 10)])
    (OPER 89 Pass []  [(r 28)] [(PARAM_NUM 0)])
    (OPER 92 JSR []  [(s putchar)] [(numParams 1)])
    (OPER 94 Mov [(r 29)]  [(i 0)])
    (OPER 96 Mov [(r 5)]  [(r 29)])
    (OPER 99 Mov [(r 31)]  [(i 10)])
    (OPER 97 LT [(r 30)]  [(r 5)(r 31)])
    (OPER 101 BEQ []  [(r 30)(i 0)(bb 13)])
  )
  (BB 12
    (OPER 104 Mov [(r 33)]  [(i 48)])
    (OPER 103 Add_I [(r 32)]  [(r 33)(r 5)])
    (OPER 102 Pass []  [(r 32)] [(PARAM_NUM 0)])
    (OPER 107 JSR []  [(s putchar)] [(numParams 1)])
    (OPER 111 Mov [(r 35)]  [(i 1)])
    (OPER 109 Add_I [(r 34)]  [(r 5)(r 35)])
    (OPER 113 Mov [(r 5)]  [(r 34)])
    (OPER 116 Mov [(r 37)]  [(i 10)])
    (OPER 114 LT [(r 36)]  [(r 5)(r 37)])
    (OPER 118 BNE []  [(r 36)(i 0)(bb 12)])
  )
  (BB 13
    (OPER 120 Mov [(r 38)]  [(i 10)])
    (OPER 119 Pass []  [(r 38)] [(PARAM_NUM 0)])
    (OPER 122 JSR []  [(s putchar)] [(numParams 1)])
    (OPER 124 Mov [(r 39)]  [(i 67)])
    (OPER 123 Pass []  [(r 39)] [(PARAM_NUM 0)])
    (OPER 126 JSR []  [(s putchar)] [(numParams 1)])
    (OPER 128 Mov [(r 40)]  [(i 83)])
    (OPER 127 Pass []  [(r 40)] [(PARAM_NUM 0)])
    (OPER 130 JSR []  [(s putchar)] [(numParams 1)])
    (OPER 132 Mov [(r 41)]  [(i 3510)])
    (OPER 131 Pass []  [(r 41)] [(PARAM_NUM 0)])
    (OPER 134 JSR []  [(s printInt)] [(numParams 1)])
    (OPER 136 Mov [(r 42)]  [(i 10)])
    (OPER 135 Pass []  [(r 42)] [(PARAM_NUM 0)])
    (OPER 138 JSR []  [(s putchar)] [(numParams 1)])
    (OPER 140 Mov [(r 43)]  [(i 0)])
    (OPER 142 Mov [(r 1)]  [(r 43)])
    (OPER 144 Mov [(r 44)]  [(i 1)])
    (OPER 146 Mov [(r 2)]  [(r 44)])
    (OPER 148 Mov [(r 45)]  [(i 1)])
    (OPER 150 Mov [(r 3)]  [(r 45)])
    (OPER 152 Mov [(r 46)]  [(i 0)])
    (OPER 154 Mov [(r 4)]  [(r 46)])
    (OPER 156 Mov [(r 47)]  [(i 0)])
    (OPER 158 Mov [(r 5)]  [(r 47)])
    (OPER 161 Mov [(r 49)]  [(i 0)])
    (OPER 159 EQ [(r 48)]  [(r 1)(r 49)])
    (OPER 163 BEQ []  [(r 48)(i 0)(bb 16)])
  )
  (BB 14
  )
  (BB 17
    (OPER 166 Mov [(r 51)]  [(i 0)])
    (OPER 164 EQ [(r 50)]  [(r 2)(r 51)])
    (OPER 168 BEQ []  [(r 50)(i 0)(bb 20)])
  )
  (BB 18
  )
  (BB 21
    (OPER 170 Mov [(r 52)]  [(i 1)])
    (OPER 172 Mov [(r 5)]  [(r 52)])
    (OPER 173 Jmp []  [(bb 19)])
  )
  (BB 19
    (OPER 201 Jmp []  [(bb 15)])
  )
  (BB 15
    (OPER 209 Mov [(r 62)]  [(i 10)])
    (OPER 207 EQ [(r 61)]  [(r 5)(r 62)])
    (OPER 211 BEQ []  [(r 61)(i 0)(bb 32)])
  )
  (BB 30
  )
  (BB 33
    (OPER 213 Mov [(r 63)]  [(i 99)])
    (OPER 212 Pass []  [(r 63)] [(PARAM_NUM 0)])
    (OPER 215 JSR []  [(s putchar)] [(numParams 1)])
    (OPER 217 Mov [(r 64)]  [(i 0)])
    (OPER 216 Pass []  [(r 64)] [(PARAM_NUM 0)])
    (OPER 219 JSR []  [(s putDigit)] [(numParams 1)])
    (OPER 221 Mov [(r 65)]  [(i 0)])
    (OPER 220 Pass []  [(r 65)] [(PARAM_NUM 0)])
    (OPER 223 JSR []  [(s putDigit)] [(numParams 1)])
    (OPER 225 Mov [(r 66)]  [(i 108)])
    (OPER 224 Pass []  [(r 66)] [(PARAM_NUM 0)])
    (OPER 227 JSR []  [(s putchar)] [(numParams 1)])
    (OPER 228 Jmp []  [(bb 31)])
  )
  (BB 31
    (OPER 250 Mov [(r 71)]  [(i 10)])
    (OPER 249 Pass []  [(r 71)] [(PARAM_NUM 0)])
    (OPER 252 JSR []  [(s putchar)] [(numParams 1)])
    (OPER 253 Mov [(r 72)]  [(i 0)])
    (OPER 255 Mov [(m RetReg)]  [(r 72)])
    (OPER 256 Jmp []  [(bb 4)])
  )
  (BB 4
    (OPER 4 Func_Exit []  [])
    (OPER 5 Return []  [(m RetReg)])
  )
  (BB 8
    (OPER 23 Mov [(r 10)]  [(i 4)])
    (OPER 25 Store []  [(r 10)(s a)(i 0)])
    (OPER 26 Jmp []  [(bb 7)])
  )
  (BB 28
    (OPER 195 Mov [(r 59)]  [(i 3)])
    (OPER 197 Mov [(r 5)]  [(r 59)])
    (OPER 198 Jmp []  [(bb 27)])
  )
  (BB 24
    (OPER 186 Mov [(r 57)]  [(i 0)])
    (OPER 184 EQ [(r 56)]  [(r 4)(r 57)])
    (OPER 188 BEQ []  [(r 56)(i 0)(bb 28)])
  )
  (BB 26
  )
  (BB 29
    (OPER 190 Mov [(r 58)]  [(i 10)])
    (OPER 192 Mov [(r 5)]  [(r 58)])
    (OPER 193 Jmp []  [(bb 27)])
  )
  (BB 27
    (OPER 199 Jmp []  [(bb 23)])
  )
  (BB 20
    (OPER 176 Mov [(r 54)]  [(i 0)])
    (OPER 174 EQ [(r 53)]  [(r 3)(r 54)])
    (OPER 178 BEQ []  [(r 53)(i 0)(bb 24)])
  )
  (BB 22
  )
  (BB 25
    (OPER 180 Mov [(r 55)]  [(i 2)])
    (OPER 182 Mov [(r 5)]  [(r 55)])
    (OPER 183 Jmp []  [(bb 23)])
  )
  (BB 23
    (OPER 200 Jmp []  [(bb 19)])
  )
  (BB 16
    (OPER 203 Mov [(r 60)]  [(i 0)])
    (OPER 205 Mov [(r 5)]  [(r 60)])
    (OPER 206 Jmp []  [(bb 15)])
  )
  (BB 32
    (OPER 230 Mov [(r 67)]  [(i 98)])
    (OPER 229 Pass []  [(r 67)] [(PARAM_NUM 0)])
    (OPER 232 JSR []  [(s putchar)] [(numParams 1)])
    (OPER 234 Mov [(r 68)]  [(i 97)])
    (OPER 233 Pass []  [(r 68)] [(PARAM_NUM 0)])
    (OPER 236 JSR []  [(s putchar)] [(numParams 1)])
    (OPER 238 Mov [(r 69)]  [(i 100)])
    (OPER 237 Pass []  [(r 69)] [(PARAM_NUM 0)])
    (OPER 240 JSR []  [(s putchar)] [(numParams 1)])
    (OPER 242 Mov [(r 70)]  [(i 61)])
    (OPER 241 Pass []  [(r 70)] [(PARAM_NUM 0)])
    (OPER 244 JSR []  [(s putchar)] [(numParams 1)])
    (OPER 245 Pass []  [(r 5)] [(PARAM_NUM 0)])
    (OPER 247 JSR []  [(s printInt)] [(numParams 1)])
    (OPER 248 Jmp []  [(bb 31)])
  )
)
